\relax 
\newlabel{star}{{1}{1}}
\newlabel{item1}{{2}{1}}
\newlabel{item2}{{3}{1}}
\@writefile{lot}{\contentsline {table}{\numberline {1}{\ignorespaces Error and condition number for Hilbert system of varying matrix size.}}{3}\protected@file@percent }
\newlabel{tab:K}{{1}{3}}
\newlabel{eqn:K}{{11}{3}}
\newlabel{eqn:f}{{12}{3}}
\@writefile{lof}{\contentsline {figure}{\numberline {1}{\ignorespaces f(t) plotted as a function of perturbation magnitude t for a 2x2 system.}}{4}\protected@file@percent }
\newlabel{fig:K}{{1}{4}}
\@writefile{lof}{\contentsline {figure}{\numberline {2}{\ignorespaces Comparison of the unloaded and loaded eiffel tower from model eiffel1. The asterisk shows the location of the applied force on the tower.}}{6}\protected@file@percent }
\newlabel{fig:trussplot}{{2}{6}}
\@writefile{lot}{\contentsline {table}{\numberline {2}{\ignorespaces This table shows the total average computational time (i.e. LU factorization, and forward and backward substitution) for all four problems.}}{6}\protected@file@percent }
\newlabel{tab:GE}{{2}{6}}
\@writefile{lof}{\contentsline {figure}{\numberline {3}{\ignorespaces CPU time as a function of N}}{7}\protected@file@percent }
\newlabel{fig:GE}{{3}{7}}
\@writefile{lot}{\contentsline {table}{\numberline {3}{\ignorespaces This table shows the total average computational time (i.e. LU factorization, and forward and backward substitution) for all four problems when matrix $A$ is used as a sparse matrix.}}{7}\protected@file@percent }
\newlabel{tab:SGE}{{3}{7}}
